…
``` r
news_sites <- read_csv('data/africa_news_sites.csv', na = c("null",""," "))
```

    ## Parsed with column specification:
    ## cols(
    ##   news_url = col_character(),
    ##   twitter_handle = col_character()
    ## )

``` r
print(news_sites)
```

    ## # A tibble: 55 x 2
    ##    news_url                                   twitter_handle 
    ##    <chr>                                      <chr>          
    ##  1 https://af.reuters.com/                    @ReutersAfrica 
    ##  2 https://www.bloomberg.com/africa           @BBGAfrica     
    ##  3 https://apnews.com/apf-africa              @AP_Africa     
    ##  4 https://www.cnn.com/africa                 @CNNAfrica     
    ##  5 http://www.aps.dz/en/                      @EnglishAps    
    ##  6 https://www.bbc.com/news/world/africa      @BBCAfrica     
    ##  7 http://www.elmoudjahid.com/en              <NA>           
    ##  8 https://algeria-watch.org/?cat=33          <NA>           
    ##  9 http://algeriatimes.info/index.php?lang=en <NA>           
    ## 10 https://times-of-algeria.com/              @TimesofAlgeria
    ## # … with 45 more rows
…
